<?xml version="1.0" encoding="utf-8"?>
<!-- Generator: Adobe Illustrator 22.0.1, SVG Export Plug-In . SVG Version: 6.00 Build 0)  -->
<svg version="1.1" id="Layer_1" xmlns="http://www.w3.org/2000/svg" xmlns:xlink="http://www.w3.org/1999/xlink" x="0px" y="0px"
	 width="25px" height="25px" viewBox="0 0 25 25" enable-background="new 0 0 25 25" xml:space="preserve">
<path fill="#D41D0B" d="M9.1,18.3l0.1,0.1c0.8,0.7,2.1,0.7,2.9,0l6.4-5.9l-6.4-5.9c-0.8-0.7-2.1-0.7-2.9,0L9.1,6.7
	c-0.8,0.7-0.8,1.9,0,2.7l3.4,3.2l-3.4,3.2C8.3,16.4,8.3,17.6,9.1,18.3z"/>
</svg>
