<?xml version="1.0" encoding="utf-8"?>
<!-- Generator: Adobe Illustrator 22.0.1, SVG Export Plug-In . SVG Version: 6.00 Build 0)  -->
<svg version="1.1" id="Layer_1" xmlns="http://www.w3.org/2000/svg" xmlns:xlink="http://www.w3.org/1999/xlink" x="0px" y="0px"
	 width="20px" height="20px" viewBox="0 0 20 20" enable-background="new 0 0 20 20" xml:space="preserve">
<path fill="#061735" d="M10,0C4.5,0,0,4.5,0,10c0,5.5,4.5,10,10,10s10-4.5,10-10C20,4.5,15.5,0,10,0z M9.7,14.7
	C9,15.3,8,15.3,7.3,14.6c-0.7-0.5-0.7-1.5,0-1.8l2.7-2.6L7.3,7.6C6.7,6.9,6.7,6,7.3,5.4l0.1-0.1C8,4.7,9,4.7,9.7,5.3l5.1,4.7
	L9.7,14.7z"/>
</svg>
