<svg xmlns="http://www.w3.org/2000/svg" width="39.9" height="42.03" viewBox="0 0 39.9 42.03">
  <metadata><?xpacket begin="﻿" id="W5M0MpCehiHzreSzNTczkc9d"?>
<x:xmpmeta xmlns:x="adobe:ns:meta/" x:xmptk="Adobe XMP Core 5.6-c142 79.160924, 2017/07/13-01:06:39        ">
   <rdf:RDF xmlns:rdf="http://www.w3.org/1999/02/22-rdf-syntax-ns#">
      <rdf:Description rdf:about=""/>
   </rdf:RDF>
</x:xmpmeta>
                                                                                                    
                                                                                                    
                                                                                                    
                                                                                                    
                                                                                                    
                                                                                                    
                                                                                                    
                                                                                                    
                                                                                                    
                                                                                                    
                                                                                                    
                                                                                                    
                                                                                                    
                                                                                                    
                                                                                                    
                                                                                                    
                                                                                                    
                                                                                                    
                                                                                                    
                                                                                                    
                           
<?xpacket end="w"?></metadata>
<defs>
    <style>
      .cls-1 {
        fill: #2b2d44;
        fill-rule: evenodd;
      }
    </style>
  </defs>
  <path id="Shape_63_copy_15" data-name="Shape 63 copy 15" class="cls-1" d="M23099,1128.28a17.155,17.155,0,1,1,17.1-17.15A17.1,17.1,0,0,1,23099,1128.28Zm0-31.09a13.935,13.935,0,1,0,13.9,13.94A13.911,13.911,0,0,0,23099,1097.19Zm20.6,38.8-11.4-11.39,2.3-2.27,11.4,11.39Z" transform="translate(-23081.9 -1093.97)"/>
</svg>
