<svg xmlns="http://www.w3.org/2000/svg" width="40" height="31" viewBox="0 0 40 31">
  <metadata><?xpacket begin="﻿" id="W5M0MpCehiHzreSzNTczkc9d"?>
<x:xmpmeta xmlns:x="adobe:ns:meta/" x:xmptk="Adobe XMP Core 5.6-c142 79.160924, 2017/07/13-01:06:39        ">
   <rdf:RDF xmlns:rdf="http://www.w3.org/1999/02/22-rdf-syntax-ns#">
      <rdf:Description rdf:about=""/>
   </rdf:RDF>
</x:xmpmeta>
                                                                                                    
                                                                                                    
                                                                                                    
                                                                                                    
                                                                                                    
                                                                                                    
                                                                                                    
                                                                                                    
                                                                                                    
                                                                                                    
                                                                                                    
                                                                                                    
                                                                                                    
                                                                                                    
                                                                                                    
                                                                                                    
                                                                                                    
                                                                                                    
                                                                                                    
                                                                                                    
                           
<?xpacket end="w"?></metadata>
<defs>
    <style>
      .cls-1 {
        fill: #0182a0;
        fill-rule: evenodd;
      }
    </style>
  </defs>
  <path id="Shape_11_copy" data-name="Shape 11 copy" class="cls-1" d="M8507.95,4850.67a17.363,17.363,0,0,1-4.72,1.23,7.958,7.958,0,0,0,3.6-4.33,16.882,16.882,0,0,1-5.2,1.9,8.436,8.436,0,0,0-6-2.47,8.017,8.017,0,0,0-8.2,7.83,7,7,0,0,0,.21,1.78,23.743,23.743,0,0,1-16.92-8.18,7.589,7.589,0,0,0-1.11,3.94,7.757,7.757,0,0,0,3.65,6.51,8.421,8.421,0,0,1-3.71-.98v0.1a7.936,7.936,0,0,0,6.58,7.68,8.58,8.58,0,0,1-2.16.27,8.847,8.847,0,0,1-1.55-.14,8.2,8.2,0,0,0,7.67,5.44,17,17,0,0,1-10.19,3.35,17.918,17.918,0,0,1-1.95-.11,24.017,24.017,0,0,0,12.58,3.52c15.08,0,23.34-11.93,23.34-22.27q0-.51-0.03-1.02A16.479,16.479,0,0,0,8507.95,4850.67Z" transform="translate(-8467.94 -4847)"/>
</svg>
