﻿[
  {
    "id": "1",
    "name": "Douglas Academy",
    "css": "douglas-academy.css"
  },
  {
    "id": "2",
    "name": "Bearsden Academy",
    "css": "bearsden-academy.css"
  },
  {
    "id": "3",
    "name": "Bishopbriggs Academy",
    "css": "bishopbriggs-academy.css"
  },
  {
    "id": "4",
    "name": "Boclair Academy",
    "css": "boclair-academy.css"
  },
  {
    "id": "5",
    "name": "Auchinairn",
    "css": "auchinairn-elcc.css"
  },
  {
    "id": "6",
    "name": "Campsie View",
    "css": "campsie-view.css"
  },
  {
    "id": "7",
    "name": "Cleddens",
    "css": "cleddens-elcc.css"
  },
  {
    "id": "8",
    "name": "Colquhoun Park",
    "css": "colquhoun-park-ps.css"
  },
  {
    "id": "9",
    "name": "Craighdhu",
    "css": "craighdhu-ps.css"
  },
  {
    "id": "10",
    "name": "Hillhead",
    "css": "hillhead-ps.css"
  },
  {
    "id": "11",
    "name": "Killermont",
    "css": "killermont-ps.css"
  },
  {
    "id": "12",
    "name": "Lennoxtown",
    "css": "lennoxtown-ps.css"
  },
  {
    "id": "13",
    "name": "Lenzie Academy",
    "css": "lenzie-academy.css"
  },
  {
    "id": "14",
    "name": "Lenzie Meadow",
    "css": "lenzie-meadow-ps.css"
  },
  {
    "id": "15",
    "name": "Meadowburn",
    "css": "meadowburn-ps.css"
  },
  {
    "id": "16",
    "name": "St Ninians High",
    "css": "st-ninians-high.css"
  },
  {
    "id": "17",
    "name": "Turnbull High",
    "css": "turnbull-high.css"
  },
  {
    "id": "18",
    "name": "Wester Cleddens Primary",
    "css": "wester-cleddens-primary.css"
  },
  {
    "id": "19",
    "name": "Kirkintilloch High",
    "css": "kirkintilloch-high.css"
  },
  {
    "id": "20",
    "name": "St Matthews Primary",
    "css": "st-matthews-ps.css"
  },
  {
    "id": "21",
    "name": "Bearsden Primary",
    "css": "bearsden-ps.css"
  },
  {
    "id": "22",
    "name": "St Machans Primary",
    "css": "st-machans-ps.css"
  },
  {
    "id": "23",
    "name": "Torrance Primary",
    "css": "torrance-ps.css"
  },
  {
    "id": "24",
    "name": "Westerton Primary",
    "css": "westerton-ps.css"
  },
  {
    "id": "25",
    "name": "Baldernock Primary",
    "css": "baldernock-ps.css"
  },
  {
    "id": "26",
    "name": "Balmuildy Primary",
    "css": "balmuildy-ps.css"
  },
  {
    "id": "27",
    "name": "Baljaffery Primary",
    "css": "baljaffery-ps.css"
  },
  {
    "id": "28",
    "name": "Castlehill Primary",
    "css": "castlehill-ps.css"
  },
  {
    "id": "29",
    "name": "Clober Primary",
    "css": "clober-ps.css"
  },
  {
    "id": "30",
    "name": "St Helens Primary",
    "css": "st-helens-ps.css"
  },
  {
    "id": "31",
    "name": "Twechar Primary",
    "css": "twechar-ps.css"
  },
  {
    "id": "32",
    "name": "Craighead Primary",
    "css": "craighead-ps.css"
  },
  {
    "id": "33",
    "name": "Gartconner Primary",
    "css": "gartconner-ps.css"
  },
  {
    "id": "34",
    "name": "Harestanes Primary",
    "css": "harestanes-ps.css"
  },
  {
    "id": "35",
    "name": "Merkland Primary",
    "css": "merkland-ps.css"
  },
  {
    "id": "36",
    "name": "Lairdsland Primary",
    "css": "lairdsland-ps.css"
  },
  {
    "id": "37",
    "name": "Millersneuk Primary",
    "css": "millersneuk-ps.css"
  },
  {
    "id": "38",
    "name": "Milngavie Primary",
    "css": "milngavie-ps.css"
  },
  {
    "id": "39",
    "name": "Mosshead Primary",
    "css": "mosshead-ps.css"
  },
  {
    "id": "40",
    "name": "Oxgang Primary",
    "css": "oxgang-ps.css"
  },
  {
    "id": "41",
    "name": "Thomas Muir Primary",
    "css": "thomas-muir-ps.css"
  },
  {
    "id": "42",
    "name": "Holy Family Primary",
    "css": "holy-family-ps.css"
  },
  {
    "id": "43",
    "name": "Holy Trinity",
    "css": "holy-trinity.css"
  },
  {
    "id": "44",
    "name": "St Nicholas",
    "css": "st-nicholas.css"
  },
  {
    "id": "45",
    "name": "Wellbeing Support Primary",
    "css": "wellbeing-support-ps.css"
  },
  {
    "id": "46",
    "name": "Wellbeing Support Secondary",
    "css": "wellbeing-support-secondary.css"
  },
  {
    "id": "47",
    "name": "East Dunbartonshire Public Protection",
    "css": "ed-public-protection.css"
  }
]